{
    "id": 924647,
    "status": "success",
    "stage": "build",
    "name": "build x86_64",
    "ref": "upstream-stable",
    "tag": false,
    "coverage": null,
    "allow_failure": false,
    "created_at": "2020-06-29T10:01:19.680Z",
    "started_at": "2020-06-29T10:05:31.191Z",
    "finished_at": "2020-06-29T10:13:22.466Z",
    "duration": 471.275234,
    "user": {
        "id": 34,
        "name": "CKI Bot",
        "username": "cki-bot",
        "state": "active",
        "avatar_url": "https://secure.gravatar.com/avatar/1d5811382e7ef0cd8f30ebbe1c252eba?s=80&d=identicon",
        "web_url": "https://gitlab/cki-bot",
        "created_at": "2018-11-29T14:12:44.544Z",
        "bio": "",
        "location": "",
        "public_email": "",
        "skype": "",
        "linkedin": "",
        "twitter": "",
        "website_url": "",
        "organization": "",
        "job_title": "",
        "work_information": null
    },
    "commit": {
        "id": "510453cda9fcee9238b9f9b49c7c46c655124e20",
        "short_id": "510453cd",
        "created_at": "2020-06-29T10:01:17.000+00:00",
        "parent_ids": [
            "87e1fb8af9a3404330ea65659e5a72018ce162a7"
        ],
        "title": "Baseline: stable-queue queue/5.7:4bae056c55ac",
        "message": "",
        "author_name": "CKI Bot",
        "author_email": "34-cki-bot@users.noreply.gitlab",
        "authored_date": "2020-06-29T10:01:17.000+00:00",
        "committer_name": "CKI Bot",
        "committer_email": "34-cki-bot@users.noreply.gitlab",
        "committed_date": "2020-06-29T10:01:17.000+00:00",
        "web_url": "https://gitlab/cki-project/cki-pipeline/-/commit/510453cda9fcee9238b9f9b49c7c46c655124e20"
    },
    "pipeline": {
        "id": 609120,
        "sha": "510453cda9fcee9238b9f9b49c7c46c655124e20",
        "ref": "upstream-stable",
        "status": "success",
        "created_at": "2020-06-29T10:01:19.565Z",
        "updated_at": "2020-06-29T17:47:31.150Z",
        "web_url": "https://gitlab/cki-project/cki-pipeline/pipelines/609120"
    },
    "web_url": "https://gitlab/cki-project/cki-pipeline/-/jobs/924647",
    "artifacts_file": {
        "filename": "artifacts.zip",
        "size": 270794684
    },
    "artifacts": [
        {
            "file_type": "archive",
            "size": 270794684,
            "filename": "artifacts.zip",
            "file_format": "zip"
        },
        {
            "file_type": "metadata",
            "size": 327,
            "filename": "metadata.gz",
            "file_format": "gzip"
        },
        {
            "file_type": "trace",
            "size": 9048,
            "filename": "job.log",
            "file_format": null
        }
    ],
    "runner": {
        "id": 37,
        "description": "cki-ocp4-high-kubernetes-high",
        "ip_address": "1.2.3.4",
        "active": true,
        "is_shared": false,
        "name": null,
        "online": true,
        "status": "online"
    },
    "artifacts_expire_at": "2020-08-10T10:13:22.317Z"
}
