{
  "id": 1012270,
  "status": "success",
  "stage": "publish",
  "name": "publish x86_64",
  "ref": "mainline.kernel.org-3fe0e332-ea5c-402b-bc69-c784212a688f",
  "tag": false,
  "coverage": null,
  "allow_failure": false,
  "created_at": "2020-11-02T13:13:21.717Z",
  "started_at": "2020-11-02T14:01:59.477Z",
  "finished_at": "2020-11-02T14:03:07.984Z",
  "duration": 68.507296,
  "user": {
    "id": 34,
    "name": "CKI Bot",
    "username": "cki-bot",
    "state": "active",
    "avatar_url": "https://secure.gravatar.com/avatar/1d5811382e7ef0cd8f30ebbe1c252eba?s=80&d=identicon",
    "web_url": "https://gitlab/cki-bot",
    "created_at": "2018-11-29T14:12:44.544Z",
    "bio": "",
    "bio_html": "",
    "location": "",
    "public_email": "",
    "skype": "",
    "linkedin": "",
    "twitter": "",
    "website_url": "",
    "organization": "",
    "job_title": "",
    "work_information": null
  },
  "commit": {
    "id": "90dc2c4af79f4a779584886c81a7f2c44bd0face",
    "short_id": "90dc2c4a",
    "created_at": "2020-11-02T13:13:19.000+00:00",
    "parent_ids": [
      "d02f79a534120cebd993da02b59d3e666c68aad3"
    ],
    "title": "Retrigger: retrigger-baseline",
    "message": "Retrigger: retrigger-baseline\n\narchitectures = x86_64 ppc64le aarch64\nartifacts_visibility = public\nbranch = master\nbuild_selftests = true\nbuilder_image = registry.gitlab.com/cki-project/containers/builder-fedora\ncki_pipeline_branch = mainline.kernel.org-3fe0e332-ea5c-402b-bc69-c784212a688f\ncki_pipeline_id = 4f90e549b3476aa579c58116aa07f54866d526512581c3b1d598ac9c9542897e\ncki_pipeline_type = retrigger-baseline\ncki_project = cki-project/cki-pipeline\ncommit_hash = 3650b228f83adda7e5ee532e2b90429c03f7b9ec\nconfig_target = olddefconfig\ndiscovery_time = 2020-10-25T22:20:16.182781Z\ngit_url = https://git.kernel.org/pub/scm/linux/kernel/git/torvalds/linux.git\nkernel_type = upstream\nmail_from = CKI Project <cki-project@redhat.com>\nmake_target = targz-pkg\nname = mainline.kernel.org\nreport_template = full\nreport_types = email\nrequire_manual_review = False\nselftest_subsets = net bpf\ntest_set = kt1\ntitle = Retrigger: retrigger-baseline\ntree_name = upstream\noriginal_pipeline = https://gitlab/cki-project/cki-pipeline/-/pipelines/615884\nskip_rhcheckpatch = true\nskip_beaker = true\nsubject = Retrigger: Baseline: mainline.kernel.org master:3650b228f83a\nretrigger = true",
    "author_name": "",
    "author_email": "",
    "authored_date": "2020-11-02T13:13:19.000+00:00",
    "committer_name": "",
    "committer_email": "",
    "committed_date": "2020-11-02T13:13:19.000+00:00",
    "web_url": "https://gitlab/cki-project/cki-pipeline/-/commit/90dc2c4af79f4a779584886c81a7f2c44bd0face"
  },
  "pipeline": {
    "id": 616568,
    "sha": "90dc2c4af79f4a779584886c81a7f2c44bd0face",
    "ref": "mainline.kernel.org-3fe0e332-ea5c-402b-bc69-c784212a688f",
    "status": "success",
    "created_at": "2020-11-02T13:13:21.397Z",
    "updated_at": "2020-11-02T14:10:04.842Z",
    "web_url": "https://gitlab/cki-project/cki-pipeline/-/pipelines/616568"
  },
  "web_url": "https://gitlab/cki-project/cki-pipeline/-/jobs/1012270",
  "artifacts_file": {
    "filename": "artifacts.zip",
    "size": 203241
  },
  "artifacts": [
    {
      "file_type": "archive",
      "size": 203241,
      "filename": "artifacts.zip",
      "file_format": "zip"
    },
    {
      "file_type": "metadata",
      "size": 214,
      "filename": "metadata.gz",
      "file_format": "gzip"
    },
    {
      "file_type": "trace",
      "size": 6091,
      "filename": "job.log",
      "file_format": null
    }
  ],
  "runner": {
    "id": 49,
    "description": "cki-ocp45-normal-kubernetes-normal",
    "ip_address": "10.8.0.181",
    "active": true,
    "is_shared": false,
    "name": null,
    "online": true,
    "status": "online"
  },
  "artifacts_expire_at": "2020-12-14T14:03:07.356Z"
}
